{
  "EmrManagedMasterSecurityGroup": "sg-29409d52",
  "AdditionalSlaveSecurityGroups": [],
  "AdditionalMasterSecurityGroups": [],
  "SubnetId": "subnet-2fc8b577",
  "EmrManagedSlaveSecurityGroup": "sg-29409d52",
  "KeyName" : "bi_ppc"
}